<?xml version="1.0" encoding="utf-8"?>
<!-- Generator: Adobe Illustrator 19.0.0, SVG Export Plug-In . SVG Version: 6.00 Build 0)  -->
<svg version="1.1" id="Layer_1" xmlns="http://www.w3.org/2000/svg" xmlns:xlink="http://www.w3.org/1999/xlink" x="0px" y="0px"
	 viewBox="0 0 66.1 66.1" style="enable-background:new 0 0 66.1 66.1;" xml:space="preserve">
<style type="text/css">
	.st0{fill:#383838;stroke:#F2634B;stroke-width:16;stroke-miterlimit:10;}
	.st1{fill:none;stroke:#383838;stroke-width:10;stroke-miterlimit:10;}
</style>
<g id="XMLID_3_">
	<circle id="XMLID_1_" class="st0" cx="33.1" cy="32.9" r="23"/>
	<circle id="XMLID_2_" class="st1" cx="33" cy="33" r="28"/>
</g>
</svg>
